n,loop_result,loop_time,rec_result,rec_time,RECURSSION_CALLS
1,1,0.000000,1,0.000000,1
2,1,0.000000,1,0.000000,3
3,2,0.000000,2,0.000000,5
4,3,0.000000,3,0.000000,9
5,5,0.000000,5,0.000000,15
6,8,0.000000,8,0.000000,25
7,13,0.000000,13,0.000000,41
8,21,0.000000,21,0.000000,67
9,34,0.000000,34,0.000000,109
10,55,0.000000,55,0.000000,177
11,89,0.000000,89,0.000000,287
12,144,0.000000,144,0.000000,465
13,233,0.000000,233,0.000000,753
14,377,0.000000,377,0.000000,1219
15,610,0.000000,610,0.000000,1973
16,987,0.000000,987,0.000000,3193
17,1597,0.000000,1597,0.000000,5167
18,2584,0.000000,2584,0.000000,8361
19,4181,0.000000,4181,0.000000,13529
20,6765,0.000000,6765,0.000000,21891
21,10946,0.000000,10946,0.000000,35421
22,17711,0.000000,17711,0.000000,57313
23,28657,0.000000,28657,0.000000,92735
24,46368,0.000000,46368,0.000000,150049
25,75025,0.000000,75025,0.000000,242785
26,121393,0.000000,121393,0.000000,392835
27,196418,0.000000,196418,0.000000,635621
28,317811,0.000000,317811,0.000000,1028457
29,514229,0.000000,514229,0.000000,1664079
30,832040,0.000000,832040,0.000000,2692537
31,1346269,0.000000,1346269,0.000000,4356617
32,2178309,0.000000,2178309,0.000000,7049155
33,3524578,0.000000,3524578,0.000000,11405773
34,5702887,0.000000,5702887,0.000000,18454929
35,9227465,0.000000,9227465,1.000000,29860703
36,14930352,0.000000,14930352,0.000000,48315633
37,24157817,0.000000,24157817,0.000000,78176337
38,39088169,0.000000,39088169,1.000000,126491971
39,63245986,0.000000,63245986,2.000000,204668309
40,102334155,0.000000,102334155,2.000000,331160281
41,165580141,0.000000,165580141,4.000000,535828591
42,267914296,0.000000,267914296,6.000000,866988873
43,433494437,0.000000,433494437,10.000000,1402817465
44,701408733,0.000000,701408733,16.000000,2269806339
45,1134903170,0.000000,1134903170,26.000000,3672623805
